[
    {
        "dataset":"TTbartoAll_pomflux_TuneCP5_13TeV",
        "mc":true,
        "filterOn":null
    },
    {
        "dataset":"TTbartoAll_TuneCP5_13TeV",
        "mc":true,
        "filterOn":null
    },
    {
        "dataset":"WW_TuneCP5_lowPU_13TeV-pythia8",
        "mc":true,
        "filterOn":null
    },
    {
        "dataset":"Wlnu_Pt12_TuneCP5_13TeV",
        "mc":true,
        "filterOn":null
    },
    {
        "dataset":"DYtoLL_Pt12_TuneCP5_13TeV",
        "mc":true,
        "filterOn":null
    },
    {
        "dataset":"Wlnu_pomflux_TuneCP5_lowPU_13TeV-pythia8",
        "mc":true,
        "filterOn":null
    },
    {
        "dataset":"WlnuGluon_pomflux_TuneCP5_lowPU_13TeV-pythia8",
        "mc":true,
        "filterOn":null
    },
    {
        "dataset":"WlnuQuark_pomflux_TuneCP5_lowPU_13TeV-pythia8",
        "mc":true,
        "filterOn":null
    },
    {
        "dataset":"DYToLL_pomflux_TuneCP5_lowPU_13TeV-pythia8",
        "mc":true,
        "filterOn":null
    },
    {
        "dataset":"SingleMuon",
        "mc":false,
        "filterOn":"Flav==13 && Pass_HIMu17>0"
    },
    {
        "dataset":"HighEGJet",
        "mc":false,
        "filterOn":"Flav==11 && Pass_HIEle20_WPLoose_Gsf>0"
    }
]
