ptdn,ptup,q,etadn,etaup,sf,sfunc
25,26.5,1,-2.4,-2,0.673,0.059
26.5,28,1,-2.4,-2,0.645,0.056
28,29.5,1,-2.4,-2,0.732,0.053
29.5,31,1,-2.4,-2,0.614,0.048
31,32.5,1,-2.4,-2,0.719,0.041
32.5,35,1,-2.4,-2,0.753,0.032
35,40,1,-2.4,-2,0.806,0.020
40,45,1,-2.4,-2,0.825,0.018
45,50,1,-2.4,-2,0.875,0.020
50,60,1,-2.4,-2,0.854,0.025
60,80,1,-2.4,-2,0.888,0.035
80,100,1,-2.4,-2,1.028,0.038
25,26.5,-1,-2.4,-2,0.716,0.058
26.5,28,-1,-2.4,-2,0.744,0.061
28,29.5,-1,-2.4,-2,0.741,0.051
29.5,31,-1,-2.4,-2,0.708,0.049
31,32.5,-1,-2.4,-2,0.740,0.044
32.5,35,-1,-2.4,-2,0.808,0.032
35,40,-1,-2.4,-2,0.767,0.020
40,45,-1,-2.4,-2,0.827,0.018
45,50,-1,-2.4,-2,0.881,0.021
50,60,-1,-2.4,-2,0.893,0.024
60,80,-1,-2.4,-2,0.862,0.038
80,100,-1,-2.4,-2,0.981,0.054
25,26.5,1,-2,-1.566,0.925,0.054
26.5,28,1,-2,-1.566,0.931,0.044
28,29.5,1,-2,-1.566,0.989,0.037
29.5,31,1,-2,-1.566,0.954,0.034
31,32.5,1,-2,-1.566,0.907,0.036
32.5,35,1,-2,-1.566,0.960,0.023
35,40,1,-2,-1.566,0.957,0.014
40,45,1,-2,-1.566,0.986,0.011
45,50,1,-2,-1.566,0.962,0.013
50,60,1,-2,-1.566,0.985,0.015
60,80,1,-2,-1.566,1.001,0.023
80,100,1,-2,-1.566,0.986,0.034
25,26.5,-1,-2,-1.566,0.900,0.053
26.5,28,-1,-2,-1.566,0.905,0.047
28,29.5,-1,-2,-1.566,0.906,0.044
29.5,31,-1,-2,-1.566,0.972,0.033
31,32.5,-1,-2,-1.566,0.931,0.034
32.5,35,-1,-2,-1.566,0.965,0.023
35,40,-1,-2,-1.566,0.958,0.014
40,45,-1,-2,-1.566,0.979,0.011
45,50,-1,-2,-1.566,0.975,0.012
50,60,-1,-2,-1.566,1.009,0.013
60,80,-1,-2,-1.566,0.960,0.025
80,100,-1,-2,-1.566,1.002,0.026
25,26.5,1,-1.566,-1.4442,0.981,0.115
26.5,28,1,-1.566,-1.4442,1.052,0.102
28,29.5,1,-1.566,-1.4442,0.958,0.095
29.5,31,1,-1.566,-1.4442,0.938,0.091
31,32.5,1,-1.566,-1.4442,0.986,0.081
32.5,35,1,-1.566,-1.4442,0.959,0.063
35,40,1,-1.566,-1.4442,0.992,0.037
40,45,1,-1.566,-1.4442,0.980,0.030
45,50,1,-1.566,-1.4442,1.027,0.033
50,60,1,-1.566,-1.4442,0.996,0.047
60,80,1,-1.566,-1.4442,1.046,0.056
80,100,1,-1.566,-1.4442,1.012,0.106
25,26.5,-1,-1.566,-1.4442,0.893,0.131
26.5,28,-1,-1.566,-1.4442,0.853,0.137
28,29.5,-1,-1.566,-1.4442,0.932,0.119
29.5,31,-1,-1.566,-1.4442,0.916,0.096
31,32.5,-1,-1.566,-1.4442,0.990,0.111
32.5,35,-1,-1.566,-1.4442,0.971,0.061
35,40,-1,-1.566,-1.4442,0.977,0.039
40,45,-1,-1.566,-1.4442,0.948,0.039
45,50,-1,-1.566,-1.4442,1.004,0.036
50,60,-1,-1.566,-1.4442,1.029,0.037
60,80,-1,-1.566,-1.4442,0.854,0.088
80,100,-1,-1.566,-1.4442,0.894,0.142
25,26.5,1,-1.4442,-1,1.027,0.048
26.5,28,1,-1.4442,-1,0.986,0.041
28,29.5,1,-1.4442,-1,1.012,0.036
29.5,31,1,-1.4442,-1,0.988,0.035
31,32.5,1,-1.4442,-1,1.031,0.027
32.5,35,1,-1.4442,-1,0.982,0.022
35,40,1,-1.4442,-1,0.991,0.011
40,45,1,-1.4442,-1,0.997,0.009
45,50,1,-1.4442,-1,0.984,0.011
50,60,1,-1.4442,-1,1.004,0.012
60,80,1,-1.4442,-1,0.993,0.018
80,100,1,-1.4442,-1,0.996,0.027
25,26.5,-1,-1.4442,-1,1.006,0.051
26.5,28,-1,-1.4442,-1,0.999,0.040
28,29.5,-1,-1.4442,-1,1.020,0.032
29.5,31,-1,-1.4442,-1,0.991,0.029
31,32.5,-1,-1.4442,-1,1.064,0.026
32.5,35,-1,-1.4442,-1,0.998,0.019
35,40,-1,-1.4442,-1,0.976,0.012
40,45,-1,-1.4442,-1,1.003,0.009
45,50,-1,-1.4442,-1,0.989,0.011
50,60,-1,-1.4442,-1,1.013,0.011
60,80,-1,-1.4442,-1,1.020,0.017
80,100,-1,-1.4442,-1,0.948,0.037
25,26.5,1,-1,-0.5,0.968,0.036
26.5,28,1,-1,-0.5,0.966,0.031
28,29.5,1,-1,-0.5,0.950,0.029
29.5,31,1,-1,-0.5,0.957,0.026
31,32.5,1,-1,-0.5,0.999,0.020
32.5,35,1,-1,-0.5,0.974,0.014
35,40,1,-1,-0.5,0.982,0.008
40,45,1,-1,-0.5,1.000,0.006
45,50,1,-1,-0.5,0.983,0.008
50,60,1,-1,-0.5,0.988,0.009
60,80,1,-1,-0.5,0.992,0.014
80,100,1,-1,-0.5,0.977,0.025
25,26.5,-1,-1,-0.5,0.971,0.034
26.5,28,-1,-1,-0.5,1.004,0.029
28,29.5,-1,-1,-0.5,0.970,0.027
29.5,31,-1,-1,-0.5,0.970,0.024
31,32.5,-1,-1,-0.5,1.007,0.020
32.5,35,-1,-1,-0.5,0.981,0.014
35,40,-1,-1,-0.5,0.985,0.007
40,45,-1,-1,-0.5,0.985,0.007
45,50,-1,-1,-0.5,0.991,0.008
50,60,-1,-1,-0.5,0.996,0.009
60,80,-1,-1,-0.5,0.998,0.014
80,100,-1,-1,-0.5,0.985,0.025
25,26.5,1,-0.5,0,1.034,0.030
26.5,28,1,-0.5,0,0.938,0.032
28,29.5,1,-0.5,0,0.976,0.025
29.5,31,1,-0.5,0,0.981,0.022
31,32.5,1,-0.5,0,0.998,0.020
32.5,35,1,-0.5,0,0.969,0.014
35,40,1,-0.5,0,0.992,0.008
40,45,1,-0.5,0,0.976,0.007
45,50,1,-0.5,0,0.979,0.008
50,60,1,-0.5,0,0.989,0.010
60,80,1,-0.5,0,0.975,0.016
80,100,1,-0.5,0,0.983,0.026
25,26.5,-1,-0.5,0,0.993,0.032
26.5,28,-1,-0.5,0,0.967,0.029
28,29.5,-1,-0.5,0,0.962,0.025
29.5,31,-1,-0.5,0,0.983,0.022
31,32.5,-1,-0.5,0,0.982,0.021
32.5,35,-1,-0.5,0,0.965,0.015
35,40,-1,-0.5,0,0.969,0.008
40,45,-1,-0.5,0,0.984,0.007
45,50,-1,-0.5,0,0.997,0.008
50,60,-1,-0.5,0,0.982,0.010
60,80,-1,-0.5,0,0.983,0.015
80,100,-1,-0.5,0,0.995,0.022
25,26.5,1,0,0.5,0.949,0.034
26.5,28,1,0,0.5,1.002,0.030
28,29.5,1,0,0.5,0.971,0.026
29.5,31,1,0,0.5,0.993,0.022
31,32.5,1,0,0.5,0.976,0.020
32.5,35,1,0,0.5,0.972,0.014
35,40,1,0,0.5,0.972,0.008
40,45,1,0,0.5,0.977,0.007
45,50,1,0,0.5,0.975,0.008
50,60,1,0,0.5,0.999,0.009
60,80,1,0,0.5,0.973,0.017
80,100,1,0,0.5,0.981,0.022
25,26.5,-1,0,0.5,0.963,0.037
26.5,28,-1,0,0.5,0.975,0.031
28,29.5,-1,0,0.5,0.972,0.026
29.5,31,-1,0,0.5,0.946,0.025
31,32.5,-1,0,0.5,0.997,0.020
32.5,35,-1,0,0.5,0.960,0.015
35,40,-1,0,0.5,0.976,0.008
40,45,-1,0,0.5,0.983,0.007
45,50,-1,0,0.5,0.978,0.008
50,60,-1,0,0.5,0.986,0.010
60,80,-1,0,0.5,0.986,0.014
80,100,-1,0,0.5,0.960,0.028
25,26.5,1,0.5,1,0.943,0.036
26.5,28,1,0.5,1,0.959,0.033
28,29.5,1,0.5,1,1.003,0.026
29.5,31,1,0.5,1,0.958,0.025
31,32.5,1,0.5,1,0.973,0.021
32.5,35,1,0.5,1,0.968,0.014
35,40,1,0.5,1,0.978,0.008
40,45,1,0.5,1,0.986,0.007
45,50,1,0.5,1,0.987,0.008
50,60,1,0.5,1,0.978,0.010
60,80,1,0.5,1,0.990,0.014
80,100,1,0.5,1,0.978,0.027
25,26.5,-1,0.5,1,0.985,0.035
26.5,28,-1,0.5,1,1.004,0.032
28,29.5,-1,0.5,1,1.002,0.025
29.5,31,-1,0.5,1,0.946,0.026
31,32.5,-1,0.5,1,0.978,0.021
32.5,35,-1,0.5,1,0.990,0.014
35,40,-1,0.5,1,0.974,0.008
40,45,-1,0.5,1,0.980,0.007
45,50,-1,0.5,1,0.979,0.008
50,60,-1,0.5,1,0.996,0.010
60,80,-1,0.5,1,1.015,0.014
80,100,-1,0.5,1,1.003,0.021
25,26.5,1,1,1.44,1.078,0.038
26.5,28,1,1,1.44,1.014,0.044
28,29.5,1,1,1.44,0.949,0.046
29.5,31,1,1,1.44,0.950,0.040
31,32.5,1,1,1.44,1.018,0.029
32.5,35,1,1,1.44,1.015,0.021
35,40,1,1,1.44,0.992,0.011
40,45,1,1,1.44,0.993,0.009
45,50,1,1,1.44,0.995,0.011
50,60,1,1,1.44,1.017,0.012
60,80,1,1,1.44,1.016,0.017
80,100,1,1,1.44,1.049,0.017
25,26.5,-1,1,1.44,0.966,0.049
26.5,28,-1,1,1.44,1.039,0.044
28,29.5,-1,1,1.44,0.990,0.036
29.5,31,-1,1,1.44,1.033,0.035
31,32.5,-1,1,1.44,1.022,0.033
32.5,35,-1,1,1.44,1.014,0.020
35,40,-1,1,1.44,1.005,0.011
40,45,-1,1,1.44,0.988,0.009
45,50,-1,1,1.44,0.983,0.012
50,60,-1,1,1.44,1.009,0.012
60,80,-1,1,1.44,1.015,0.018
80,100,-1,1,1.44,1.038,0.026
25,26.5,1,1.44,1.57,1.070,0.136
26.5,28,1,1.44,1.57,1.024,0.119
28,29.5,1,1.44,1.57,0.861,0.129
29.5,31,1,1.44,1.57,1.007,0.106
31,32.5,1,1.44,1.57,0.990,0.088
32.5,35,1,1.44,1.57,0.803,0.080
35,40,1,1.44,1.57,0.996,0.037
40,45,1,1.44,1.57,1.019,0.031
45,50,1,1.44,1.57,0.952,0.039
50,60,1,1.44,1.57,0.997,0.043
60,80,1,1.44,1.57,0.943,0.074
80,100,1,1.44,1.57,1.104,0.080
25,26.5,-1,1.44,1.57,1.075,0.149
26.5,28,-1,1.44,1.57,0.924,0.112
28,29.5,-1,1.44,1.57,0.975,0.100
29.5,31,-1,1.44,1.57,1.009,0.120
31,32.5,-1,1.44,1.57,0.921,0.110
32.5,35,-1,1.44,1.57,1.017,0.062
35,40,-1,1.44,1.57,0.956,0.039
40,45,-1,1.44,1.57,1.024,0.029
45,50,-1,1.44,1.57,1.031,0.036
50,60,-1,1.44,1.57,1.029,0.042
60,80,-1,1.44,1.57,1.045,0.064
80,100,-1,1.44,1.57,1.178,0.149
25,26.5,1,1.57,2,0.891,0.049
26.5,28,1,1.57,2,0.883,0.044
28,29.5,1,1.57,2,0.979,0.039
29.5,31,1,1.57,2,0.918,0.036
31,32.5,1,1.57,2,0.915,0.036
32.5,35,1,1.57,2,0.957,0.023
35,40,1,1.57,2,0.956,0.014
40,45,1,1.57,2,0.973,0.011
45,50,1,1.57,2,0.955,0.013
50,60,1,1.57,2,0.965,0.016
60,80,1,1.57,2,0.990,0.023
80,100,1,1.57,2,0.952,0.041
25,26.5,-1,1.57,2,0.922,0.050
26.5,28,-1,1.57,2,0.899,0.044
28,29.5,-1,1.57,2,0.985,0.039
29.5,31,-1,1.57,2,0.888,0.037
31,32.5,-1,1.57,2,0.967,0.032
32.5,35,-1,1.57,2,0.971,0.021
35,40,-1,1.57,2,0.959,0.013
40,45,-1,1.57,2,0.964,0.011
45,50,-1,1.57,2,0.967,0.013
50,60,-1,1.57,2,0.957,0.016
60,80,-1,1.57,2,0.951,0.022
80,100,-1,1.57,2,1.004,0.033
25,26.5,1,2,2.4,0.623,0.065
26.5,28,1,2,2.4,0.797,0.058
28,29.5,1,2,2.4,0.628,0.055
29.5,31,1,2,2.4,0.747,0.050
31,32.5,1,2,2.4,0.679,0.054
32.5,35,1,2,2.4,0.804,0.032
35,40,1,2,2.4,0.808,0.021
40,45,1,2,2.4,0.842,0.019
45,50,1,2,2.4,0.869,0.022
50,60,1,2,2.4,0.901,0.026
60,80,1,2,2.4,0.954,0.034
80,100,1,2,2.4,0.968,0.054
25,26.5,-1,2,2.4,0.706,0.069
26.5,28,-1,2,2.4,0.655,0.058
28,29.5,-1,2,2.4,0.799,0.052
29.5,31,-1,2,2.4,0.689,0.054
31,32.5,-1,2,2.4,0.780,0.049
32.5,35,-1,2,2.4,0.753,0.033
35,40,-1,2,2.4,0.819,0.021
40,45,-1,2,2.4,0.866,0.018
45,50,-1,2,2.4,0.825,0.023
50,60,-1,2,2.4,0.918,0.024
60,80,-1,2,2.4,0.898,0.038
80,100,-1,2,2.4,0.873,0.089
